EESchema Schematic File Version 4
LIBS:TL494_Board-cache
EELAYER 30 0
EELAYER END
$Descr A4 11693 8268
encoding utf-8
Sheet 1 1
Title ""
Date ""
Rev ""
Comp ""
Comment1 ""
Comment2 ""
Comment3 ""
Comment4 ""
$EndDescr
$Comp
L TL494_Board-rescue:TL494-Regulator_Controller U1
U 1 1 5D3E81C3
P 5850 3300
F 0 "U1" H 5850 4181 50  0000 C CNN
F 1 "TL494" H 5850 4090 50  0000 C CNN
F 2 "Package_DIP:DIP-16_W7.62mm_Socket_LongPads" H 5850 3300 50  0001 C CNN
F 3 "http://www.ti.com/lit/ds/symlink/tl494.pdf" H 5850 3300 50  0001 C CNN
	1    5850 3300
	1    0    0    -1  
$EndComp
$Comp
L power:GND #PWR0101
U 1 1 5D3E86EF
P 5850 3900
F 0 "#PWR0101" H 5850 3650 50  0001 C CNN
F 1 "GND" H 5855 3727 50  0000 C CNN
F 2 "" H 5850 3900 50  0001 C CNN
F 3 "" H 5850 3900 50  0001 C CNN
	1    5850 3900
	1    0    0    -1  
$EndComp
$Comp
L Device:C_Small C2
U 1 1 5D3E8E4E
P 4850 3950
F 0 "C2" H 4942 3996 50  0000 L CNN
F 1 "CT" H 4942 3905 50  0000 L CNN
F 2 "Capacitor_THT:C_Rect_L7.0mm_W2.0mm_P5.00mm" H 4850 3950 50  0001 C CNN
F 3 "~" H 4850 3950 50  0001 C CNN
	1    4850 3950
	1    0    0    -1  
$EndComp
Wire Wire Line
	4850 3850 4850 3700
$Comp
L power:GND #PWR0102
U 1 1 5D3E91E3
P 4850 4050
F 0 "#PWR0102" H 4850 3800 50  0001 C CNN
F 1 "GND" H 4855 3877 50  0000 C CNN
F 2 "" H 4850 4050 50  0001 C CNN
F 3 "" H 4850 4050 50  0001 C CNN
	1    4850 4050
	1    0    0    -1  
$EndComp
$Comp
L Device:R R3
U 1 1 5D3E95FA
P 4550 3950
F 0 "R3" H 4620 3996 50  0000 L CNN
F 1 "RT" H 4620 3905 50  0000 L CNN
F 2 "Resistor_THT:R_Axial_DIN0204_L3.6mm_D1.6mm_P7.62mm_Horizontal" V 4480 3950 50  0001 C CNN
F 3 "~" H 4550 3950 50  0001 C CNN
	1    4550 3950
	1    0    0    -1  
$EndComp
Wire Wire Line
	4550 3800 4550 3600
$Comp
L power:GND #PWR0103
U 1 1 5D3E9BE8
P 4550 4100
F 0 "#PWR0103" H 4550 3850 50  0001 C CNN
F 1 "GND" H 4555 3927 50  0000 C CNN
F 2 "" H 4550 4100 50  0001 C CNN
F 3 "" H 4550 4100 50  0001 C CNN
	1    4550 4100
	1    0    0    -1  
$EndComp
Text GLabel 4350 1750 1    50   Input ~ 0
REF
Connection ~ 4350 3300
$Comp
L Device:CP_Small C1
U 1 1 5D3EBF75
P 3700 3300
F 0 "C1" V 3600 3450 50  0000 C CNN
F 1 "2.5u" V 3600 3300 50  0000 C CNN
F 2 "Capacitor_THT:CP_Radial_D5.0mm_P2.00mm" H 3700 3300 50  0001 C CNN
F 3 "~" H 3700 3300 50  0001 C CNN
	1    3700 3300
	0    1    1    0   
$EndComp
$Comp
L Device:R R2
U 1 1 5D3EE2D5
P 3700 3050
F 0 "R2" V 3900 3050 50  0000 C CNN
F 1 "10k" V 3800 3050 50  0000 C CNN
F 2 "Resistor_THT:R_Axial_DIN0204_L3.6mm_D1.6mm_P7.62mm_Horizontal" V 3630 3050 50  0001 C CNN
F 3 "~" H 3700 3050 50  0001 C CNN
	1    3700 3050
	0    1    -1   0   
$EndComp
Wire Wire Line
	4350 1750 4350 1950
Wire Wire Line
	3800 3300 4000 3300
Wire Wire Line
	3500 3300 3600 3300
Connection ~ 3500 3400
Wire Wire Line
	3500 3400 3500 3300
$Comp
L Device:R R1
U 1 1 5D3EFD64
P 3500 3800
F 0 "R1" H 3570 3846 50  0000 L CNN
F 1 "1k" H 3570 3755 50  0000 L CNN
F 2 "Resistor_THT:R_Axial_DIN0204_L3.6mm_D1.6mm_P7.62mm_Horizontal" V 3430 3800 50  0001 C CNN
F 3 "~" H 3500 3800 50  0001 C CNN
	1    3500 3800
	1    0    0    -1  
$EndComp
$Comp
L power:GND #PWR0104
U 1 1 5D3F03AC
P 3500 3950
F 0 "#PWR0104" H 3500 3700 50  0001 C CNN
F 1 "GND" H 3505 3777 50  0000 C CNN
F 2 "" H 3500 3950 50  0001 C CNN
F 3 "" H 3500 3950 50  0001 C CNN
	1    3500 3950
	1    0    0    -1  
$EndComp
$Comp
L Device:R_POT RV1
U 1 1 5D3F0BFF
P 3950 2550
F 0 "RV1" H 3881 2596 50  0000 R CNN
F 1 "V_THR" H 3881 2505 50  0000 R CNN
F 2 "Potentiometer_THT:Potentiometer_Bourns_3296W_Vertical" H 3950 2550 50  0001 C CNN
F 3 "~" H 3950 2550 50  0001 C CNN
	1    3950 2550
	1    0    0    -1  
$EndComp
$Comp
L Device:R_POT RV2
U 1 1 5D3F48E0
P 4650 2300
F 0 "RV2" H 4580 2346 50  0000 R CNN
F 1 "I_THR" H 4580 2255 50  0000 R CNN
F 2 "Potentiometer_THT:Potentiometer_Bourns_3296W_Vertical" H 4650 2300 50  0001 C CNN
F 3 "~" H 4650 2300 50  0001 C CNN
	1    4650 2300
	1    0    0    -1  
$EndComp
$Comp
L power:GND #PWR0105
U 1 1 5D3F57AF
P 3950 2700
F 0 "#PWR0105" H 3950 2450 50  0001 C CNN
F 1 "GND" H 3955 2527 50  0000 C CNN
F 2 "" H 3950 2700 50  0001 C CNN
F 3 "" H 3950 2700 50  0001 C CNN
	1    3950 2700
	1    0    0    -1  
$EndComp
$Comp
L power:GND #PWR0106
U 1 1 5D3F5ADA
P 4650 2450
F 0 "#PWR0106" H 4650 2200 50  0001 C CNN
F 1 "GND" H 4655 2277 50  0000 C CNN
F 2 "" H 4650 2450 50  0001 C CNN
F 3 "" H 4650 2450 50  0001 C CNN
	1    4650 2450
	1    0    0    -1  
$EndComp
Wire Wire Line
	4250 2550 4250 3100
Wire Wire Line
	4100 2550 4250 2550
Wire Wire Line
	3950 2400 3950 2300
Wire Wire Line
	3950 2300 4350 2300
Connection ~ 4350 2300
Wire Wire Line
	4350 2300 4350 3300
Text GLabel 5000 3200 0    50   Input ~ 0
FB
$Comp
L Device:R R5
U 1 1 5D3FB00F
P 5200 2000
F 0 "R5" H 5270 2046 50  0000 L CNN
F 1 "50k" H 5270 1955 50  0000 L CNN
F 2 "Resistor_THT:R_Axial_DIN0204_L3.6mm_D1.6mm_P7.62mm_Horizontal" V 5130 2000 50  0001 C CNN
F 3 "~" H 5200 2000 50  0001 C CNN
	1    5200 2000
	1    0    0    -1  
$EndComp
Text GLabel 5200 1750 1    50   Input ~ 0
FB
Wire Wire Line
	5200 1750 5200 1850
$Comp
L Device:R R4
U 1 1 5D3FE238
P 4950 2300
F 0 "R4" V 4743 2300 50  0000 C CNN
F 1 "510" V 4834 2300 50  0000 C CNN
F 2 "Resistor_THT:R_Axial_DIN0204_L3.6mm_D1.6mm_P7.62mm_Horizontal" V 4880 2300 50  0001 C CNN
F 3 "~" H 4950 2300 50  0001 C CNN
	1    4950 2300
	0    1    1    0   
$EndComp
Wire Wire Line
	4650 1950 4350 1950
Wire Wire Line
	4650 1950 4650 2150
Connection ~ 4350 1950
Wire Wire Line
	4350 1950 4350 2300
Wire Wire Line
	5200 2150 5200 2300
Wire Wire Line
	5200 2800 5350 2800
Wire Wire Line
	5100 2300 5200 2300
Connection ~ 5200 2300
Wire Wire Line
	5200 2300 5200 2800
Wire Wire Line
	4250 3100 5350 3100
Wire Wire Line
	5000 3200 5350 3200
Wire Wire Line
	4350 3300 5300 3300
Wire Wire Line
	3500 3400 5350 3400
Wire Wire Line
	4550 3600 5350 3600
Wire Wire Line
	4850 3700 5350 3700
Wire Wire Line
	3500 3400 3500 3650
Wire Wire Line
	3850 3050 4000 3050
Wire Wire Line
	4000 3050 4000 3300
Connection ~ 4000 3300
Wire Wire Line
	4000 3300 4350 3300
Wire Wire Line
	3550 3050 3500 3050
Wire Wire Line
	3500 3050 3500 3300
Connection ~ 3500 3300
Wire Wire Line
	5350 3500 4350 3500
Wire Wire Line
	4350 3500 4350 3300
$Comp
L Transistor_BJT:BC547 Q1
U 1 1 5D40D48E
P 7500 2350
F 0 "Q1" H 7691 2396 50  0000 L CNN
F 1 "BC547" H 7691 2305 50  0000 L CNN
F 2 "Package_TO_SOT_THT:TO-92_Inline" H 7700 2275 50  0001 L CIN
F 3 "http://www.fairchildsemi.com/ds/BC/BC547.pdf" H 7500 2350 50  0001 L CNN
	1    7500 2350
	1    0    0    -1  
$EndComp
$Comp
L Transistor_BJT:BC557 Q2
U 1 1 5D40DF5C
P 7500 2850
F 0 "Q2" H 7691 2804 50  0000 L CNN
F 1 "BC557" H 7691 2895 50  0000 L CNN
F 2 "Package_TO_SOT_THT:TO-92_Inline" H 7700 2775 50  0001 L CIN
F 3 "http://www.fairchildsemi.com/ds/BC/BC557.pdf" H 7500 2850 50  0001 L CNN
	1    7500 2850
	1    0    0    1   
$EndComp
Wire Wire Line
	7600 2650 7600 2600
$Comp
L Device:R R8
U 1 1 5D410207
P 8150 2600
F 0 "R8" V 7943 2600 50  0000 C CNN
F 1 "10" V 8034 2600 50  0000 C CNN
F 2 "Resistor_THT:R_Axial_DIN0204_L3.6mm_D1.6mm_P7.62mm_Horizontal" V 8080 2600 50  0001 C CNN
F 3 "~" H 8150 2600 50  0001 C CNN
	1    8150 2600
	0    1    1    0   
$EndComp
Wire Wire Line
	8000 2600 7600 2600
Connection ~ 7600 2600
Wire Wire Line
	7600 2600 7600 2550
$Comp
L power:GND #PWR0107
U 1 1 5D4112FE
P 7600 3050
F 0 "#PWR0107" H 7600 2800 50  0001 C CNN
F 1 "GND" H 7605 2877 50  0000 C CNN
F 2 "" H 7600 3050 50  0001 C CNN
F 3 "" H 7600 3050 50  0001 C CNN
	1    7600 3050
	1    0    0    -1  
$EndComp
$Comp
L Transistor_BJT:BC547 Q3
U 1 1 5D414F38
P 7500 3650
F 0 "Q3" H 7691 3696 50  0000 L CNN
F 1 "BC547" H 7691 3605 50  0000 L CNN
F 2 "Package_TO_SOT_THT:TO-92_Inline" H 7700 3575 50  0001 L CIN
F 3 "http://www.fairchildsemi.com/ds/BC/BC547.pdf" H 7500 3650 50  0001 L CNN
	1    7500 3650
	1    0    0    -1  
$EndComp
$Comp
L Transistor_BJT:BC557 Q4
U 1 1 5D414F3E
P 7500 4150
F 0 "Q4" H 7691 4104 50  0000 L CNN
F 1 "BC557" H 7691 4195 50  0000 L CNN
F 2 "Package_TO_SOT_THT:TO-92_Inline" H 7700 4075 50  0001 L CIN
F 3 "http://www.fairchildsemi.com/ds/BC/BC557.pdf" H 7500 4150 50  0001 L CNN
	1    7500 4150
	1    0    0    1   
$EndComp
Wire Wire Line
	7600 3950 7600 3900
$Comp
L Device:R R9
U 1 1 5D414F45
P 8150 3900
F 0 "R9" V 7943 3900 50  0000 C CNN
F 1 "10" V 8034 3900 50  0000 C CNN
F 2 "Resistor_THT:R_Axial_DIN0204_L3.6mm_D1.6mm_P7.62mm_Horizontal" V 8080 3900 50  0001 C CNN
F 3 "~" H 8150 3900 50  0001 C CNN
	1    8150 3900
	0    1    1    0   
$EndComp
Wire Wire Line
	8000 3900 7600 3900
Connection ~ 7600 3900
Wire Wire Line
	7600 3900 7600 3850
$Comp
L power:GND #PWR0108
U 1 1 5D414F4E
P 7600 4350
F 0 "#PWR0108" H 7600 4100 50  0001 C CNN
F 1 "GND" H 7605 4177 50  0000 C CNN
F 2 "" H 7600 4350 50  0001 C CNN
F 3 "" H 7600 4350 50  0001 C CNN
	1    7600 4350
	1    0    0    -1  
$EndComp
Wire Wire Line
	8700 3100 8700 1800
Wire Wire Line
	8700 1800 8450 1800
Wire Wire Line
	5850 1800 5850 2600
Wire Wire Line
	6350 3100 6500 3100
Wire Wire Line
	6500 3100 6500 1800
Connection ~ 6500 1800
Wire Wire Line
	6500 1800 5850 1800
Wire Wire Line
	6350 3200 6500 3200
Wire Wire Line
	6500 3200 6500 3100
Connection ~ 6500 3100
$Comp
L Device:R R7
U 1 1 5D418214
P 7100 4400
F 0 "R7" H 7170 4446 50  0000 L CNN
F 1 "2.2k" H 7170 4355 50  0000 L CNN
F 2 "Resistor_THT:R_Axial_DIN0204_L3.6mm_D1.6mm_P7.62mm_Horizontal" V 7030 4400 50  0001 C CNN
F 3 "~" H 7100 4400 50  0001 C CNN
	1    7100 4400
	1    0    0    -1  
$EndComp
$Comp
L power:GND #PWR0109
U 1 1 5D4185A9
P 7100 4550
F 0 "#PWR0109" H 7100 4300 50  0001 C CNN
F 1 "GND" H 7105 4377 50  0000 C CNN
F 2 "" H 7100 4550 50  0001 C CNN
F 3 "" H 7100 4550 50  0001 C CNN
	1    7100 4550
	1    0    0    -1  
$EndComp
$Comp
L Device:R R6
U 1 1 5D419206
P 7100 3100
F 0 "R6" H 7170 3146 50  0000 L CNN
F 1 "2.2k" H 7170 3055 50  0000 L CNN
F 2 "Resistor_THT:R_Axial_DIN0204_L3.6mm_D1.6mm_P7.62mm_Horizontal" V 7030 3100 50  0001 C CNN
F 3 "~" H 7100 3100 50  0001 C CNN
	1    7100 3100
	1    0    0    -1  
$EndComp
$Comp
L power:GND #PWR0110
U 1 1 5D41920C
P 7100 3250
F 0 "#PWR0110" H 7100 3000 50  0001 C CNN
F 1 "GND" H 7105 3077 50  0000 C CNN
F 2 "" H 7100 3250 50  0001 C CNN
F 3 "" H 7100 3250 50  0001 C CNN
	1    7100 3250
	1    0    0    -1  
$EndComp
Wire Wire Line
	7100 2350 7300 2350
Wire Wire Line
	7100 2950 7100 2850
Wire Wire Line
	7300 2850 7100 2850
Connection ~ 7100 2850
Wire Wire Line
	7100 2850 7100 2350
Wire Wire Line
	7100 2850 6750 2850
Wire Wire Line
	6750 2850 6750 3400
Wire Wire Line
	6750 3400 6350 3400
Wire Wire Line
	6350 3500 6750 3500
Wire Wire Line
	6750 3500 6750 4150
Wire Wire Line
	6750 4150 7100 4150
Wire Wire Line
	7300 3650 7100 3650
Wire Wire Line
	7100 3650 7100 4150
Connection ~ 7100 4150
Wire Wire Line
	7100 4150 7300 4150
Wire Wire Line
	7100 4150 7100 4250
Wire Wire Line
	7600 3450 8450 3450
Wire Wire Line
	8450 3450 8450 1800
Connection ~ 8450 1800
Wire Wire Line
	8450 1800 7600 1800
Wire Wire Line
	7600 2150 7600 1800
Connection ~ 7600 1800
Wire Wire Line
	7600 1800 6750 1800
Wire Wire Line
	8300 2600 8550 2600
Wire Wire Line
	8550 2600 8550 3200
Wire Wire Line
	8300 3900 8550 3900
Wire Wire Line
	8550 3900 8550 3300
$Comp
L Connector:Conn_01x07_Male J1
U 1 1 5D424E17
P 9200 3400
F 0 "J1" H 9172 3332 50  0000 R CNN
F 1 "HEADER" H 9172 3423 50  0000 R CNN
F 2 "Connector_PinHeader_2.54mm:PinHeader_1x07_P2.54mm_Vertical" H 9200 3400 50  0001 C CNN
F 3 "~" H 9200 3400 50  0001 C CNN
	1    9200 3400
	-1   0    0    1   
$EndComp
Wire Wire Line
	8650 3400 8650 4900
Wire Wire Line
	8650 4900 5300 4900
Wire Wire Line
	5300 4900 5300 3300
Connection ~ 5300 3300
Wire Wire Line
	5300 3300 5350 3300
Wire Wire Line
	5350 3000 5200 3000
Wire Wire Line
	5200 3000 5200 5000
Wire Wire Line
	5200 5000 8750 5000
Wire Wire Line
	8750 5000 8750 3500
Wire Wire Line
	8750 3500 9000 3500
Wire Wire Line
	8650 3400 9000 3400
Wire Wire Line
	8550 3300 9000 3300
Wire Wire Line
	8550 3200 9000 3200
Wire Wire Line
	8700 3100 9000 3100
Wire Wire Line
	9000 3600 8850 3600
Wire Wire Line
	8850 3600 8850 5100
Wire Wire Line
	8850 5100 5100 5100
Wire Wire Line
	5100 5100 5100 2900
Wire Wire Line
	5100 2900 5350 2900
$Comp
L power:GND #PWR0111
U 1 1 5D439057
P 9000 3700
F 0 "#PWR0111" H 9000 3450 50  0001 C CNN
F 1 "GND" H 9005 3527 50  0000 C CNN
F 2 "" H 9000 3700 50  0001 C CNN
F 3 "" H 9000 3700 50  0001 C CNN
	1    9000 3700
	1    0    0    -1  
$EndComp
$Comp
L Device:C_Small C3
U 1 1 5D3EFE76
P 6750 2000
F 0 "C3" H 6842 2046 50  0000 L CNN
F 1 "100n" H 6842 1955 50  0000 L CNN
F 2 "Capacitor_SMD:C_1206_3216Metric_Pad1.42x1.75mm_HandSolder" H 6750 2000 50  0001 C CNN
F 3 "~" H 6750 2000 50  0001 C CNN
	1    6750 2000
	1    0    0    -1  
$EndComp
$Comp
L power:GND #PWR0112
U 1 1 5D3F03D2
P 6750 2100
F 0 "#PWR0112" H 6750 1850 50  0001 C CNN
F 1 "GND" H 6755 1927 50  0000 C CNN
F 2 "" H 6750 2100 50  0001 C CNN
F 3 "" H 6750 2100 50  0001 C CNN
	1    6750 2100
	1    0    0    -1  
$EndComp
Wire Wire Line
	6750 1900 6750 1800
Connection ~ 6750 1800
Wire Wire Line
	6750 1800 6500 1800
$EndSCHEMATC
